Gene Expression Analysis
…
In the following a linear regression model is mapped to the data. In order to do so, the data need to be pivoted to long format and grouped by genes. Gene expression levels and disease label are nested pr. gene.

dat_nest <- dat_aug |>
  mutate(disease_state = case_when(disease_state == "HIV" ~ 0,
                                   disease_state == "HIV/TB" ~ 1)) |> 
  pivot_longer(cols = matches("^ILMN_[0-9]+"),
               names_to = "gene", 
               values_to = "log2_expr_level") |> 
               group_by(gene) |> 
               nest()

dat_nest

# A tibble: 47,231 × 2
# Groups:   gene [47,231]
   gene         data             
   <chr>        <list>           
 1 ILMN_1762337 <tibble [43 × 7]>
 2 ILMN_2055271 <tibble [43 × 7]>
 3 ILMN_1736007 <tibble [43 × 7]>
 4 ILMN_2383229 <tibble [43 × 7]>
 5 ILMN_1806310 <tibble [43 × 7]>
 6 ILMN_1779670 <tibble [43 × 7]>
 7 ILMN_1653355 <tibble [43 × 7]>
 8 ILMN_1717783 <tibble [43 × 7]>
 9 ILMN_1705025 <tibble [43 × 7]>
10 ILMN_1814316 <tibble [43 × 7]>
# ℹ 47,221 more rows
…
